%!PS-Adobe-2.0 EPSF-2.0
%%Title: E:\dia_0.97.2_win32\My Project\Diagram2.dia
%%Creator: Dia v0.97.2
%%CreationDate: Wed Apr 01 14:06:48 2020
%%For: User
%%Orientation: Portrait
%%Magnification: 1.0000
%%BoundingBox: 0 0 1421 604
%%BeginSetup
%%EndSetup
%%EndComments
%%BeginProlog
[ /.notdef /.notdef /.notdef /.notdef /.notdef /.notdef /.notdef /.notdef /.notdef /.notdef
/.notdef /.notdef /.notdef /.notdef /.notdef /.notdef /.notdef /.notdef /.notdef /.notdef
/.notdef /.notdef /.notdef /.notdef /.notdef /.notdef /.notdef /.notdef /.notdef /.notdef
/.notdef /.notdef /space /exclam /quotedbl /numbersign /dollar /percent /ampersand /quoteright
/parenleft /parenright /asterisk /plus /comma /hyphen /period /slash /zero /one
/two /three /four /five /six /seven /eight /nine /colon /semicolon
/less /equal /greater /question /at /A /B /C /D /E
/F /G /H /I /J /K /L /M /N /O
/P /Q /R /S /T /U /V /W /X /Y
/Z /bracketleft /backslash /bracketright /asciicircum /underscore /quoteleft /a /b /c
/d /e /f /g /h /i /j /k /l /m
/n /o /p /q /r /s /t /u /v /w
/x /y /z /braceleft /bar /braceright /asciitilde /.notdef /.notdef /.notdef
/.notdef /.notdef /.notdef /.notdef /.notdef /.notdef /.notdef /.notdef /.notdef /.notdef
/.notdef /.notdef /.notdef /.notdef /.notdef /.notdef /.notdef /.notdef /.notdef /.notdef
/.notdef /.notdef /.notdef /.notdef /.notdef /.notdef /.notdef /.notdef /.notdef /.notdef
/space /exclamdown /cent /sterling /currency /yen /brokenbar /section /dieresis /copyright
/ordfeminine /guillemotleft /logicalnot /hyphen /registered /macron /degree /plusminus /twosuperior /threesuperior
/acute /mu /paragraph /periodcentered /cedilla /onesuperior /ordmasculine /guillemotright /onequarter /onehalf
/threequarters /questiondown /Agrave /Aacute /Acircumflex /Atilde /Adieresis /Aring /AE /Ccedilla
/Egrave /Eacute /Ecircumflex /Edieresis /Igrave /Iacute /Icircumflex /Idieresis /Eth /Ntilde
/Ograve /Oacute /Ocircumflex /Otilde /Odieresis /multiply /Oslash /Ugrave /Uacute /Ucircumflex
/Udieresis /Yacute /Thorn /germandbls /agrave /aacute /acircumflex /atilde /adieresis /aring
/ae /ccedilla /egrave /eacute /ecircumflex /edieresis /igrave /iacute /icircumflex /idieresis
/eth /ntilde /ograve /oacute /ocircumflex /otilde /odieresis /divide /oslash /ugrave
/uacute /ucircumflex /udieresis /yacute /thorn /ydieresis] /isolatin1encoding exch def
/cp {closepath} bind def
/c {curveto} bind def
/f {fill} bind def
/a {arc} bind def
/ef {eofill} bind def
/ex {exch} bind def
/gr {grestore} bind def
/gs {gsave} bind def
/sa {save} bind def
/rs {restore} bind def
/l {lineto} bind def
/m {moveto} bind def
/rm {rmoveto} bind def
/n {newpath} bind def
/s {stroke} bind def
/sh {show} bind def
/slc {setlinecap} bind def
/slj {setlinejoin} bind def
/slw {setlinewidth} bind def
/srgb {setrgbcolor} bind def
/rot {rotate} bind def
/sc {scale} bind def
/sd {setdash} bind def
/ff {findfont} bind def
/sf {setfont} bind def
/scf {scalefont} bind def
/sw {stringwidth pop} bind def
/tr {translate} bind def

/ellipsedict 8 dict def
ellipsedict /mtrx matrix put
/ellipse
{ ellipsedict begin
   /endangle exch def
   /startangle exch def
   /yrad exch def
   /xrad exch def
   /y exch def
   /x exch def   /savematrix mtrx currentmatrix def
   x y tr xrad yrad sc
   0 0 1 startangle endangle arc
   savematrix setmatrix
   end
} def

/mergeprocs {
dup length
3 -1 roll
dup
length
dup
5 1 roll
3 -1 roll
add
array cvx
dup
3 -1 roll
0 exch
putinterval
dup
4 2 roll
putinterval
} bind def
/Times-Roman-latin1
    /Times-Roman findfont
    dup length dict begin
	{1 index /FID ne {def} {pop pop} ifelse} forall
	/Encoding isolatin1encoding def
    currentdict end
definefont pop
/Times-Italic-latin1
    /Times-Italic findfont
    dup length dict begin
	{1 index /FID ne {def} {pop pop} ifelse} forall
	/Encoding isolatin1encoding def
    currentdict end
definefont pop
/Times-Bold-latin1
    /Times-Bold findfont
    dup length dict begin
	{1 index /FID ne {def} {pop pop} ifelse} forall
	/Encoding isolatin1encoding def
    currentdict end
definefont pop
/Times-BoldItalic-latin1
    /Times-BoldItalic findfont
    dup length dict begin
	{1 index /FID ne {def} {pop pop} ifelse} forall
	/Encoding isolatin1encoding def
    currentdict end
definefont pop
/AvantGarde-Gothic-latin1
    /AvantGarde-Gothic findfont
    dup length dict begin
	{1 index /FID ne {def} {pop pop} ifelse} forall
	/Encoding isolatin1encoding def
    currentdict end
definefont pop
/AvantGarde-BookOblique-latin1
    /AvantGarde-BookOblique findfont
    dup length dict begin
	{1 index /FID ne {def} {pop pop} ifelse} forall
	/Encoding isolatin1encoding def
    currentdict end
definefont pop
/AvantGarde-Demi-latin1
    /AvantGarde-Demi findfont
    dup length dict begin
	{1 index /FID ne {def} {pop pop} ifelse} forall
	/Encoding isolatin1encoding def
    currentdict end
definefont pop
/AvantGarde-DemiOblique-latin1
    /AvantGarde-DemiOblique findfont
    dup length dict begin
	{1 index /FID ne {def} {pop pop} ifelse} forall
	/Encoding isolatin1encoding def
    currentdict end
definefont pop
/Bookman-Light-latin1
    /Bookman-Light findfont
    dup length dict begin
	{1 index /FID ne {def} {pop pop} ifelse} forall
	/Encoding isolatin1encoding def
    currentdict end
definefont pop
/Bookman-LightItalic-latin1
    /Bookman-LightItalic findfont
    dup length dict begin
	{1 index /FID ne {def} {pop pop} ifelse} forall
	/Encoding isolatin1encoding def
    currentdict end
definefont pop
/Bookman-Demi-latin1
    /Bookman-Demi findfont
    dup length dict begin
	{1 index /FID ne {def} {pop pop} ifelse} forall
	/Encoding isolatin1encoding def
    currentdict end
definefont pop
/Bookman-DemiItalic-latin1
    /Bookman-DemiItalic findfont
    dup length dict begin
	{1 index /FID ne {def} {pop pop} ifelse} forall
	/Encoding isolatin1encoding def
    currentdict end
definefont pop
/Courier-latin1
    /Courier findfont
    dup length dict begin
	{1 index /FID ne {def} {pop pop} ifelse} forall
	/Encoding isolatin1encoding def
    currentdict end
definefont pop
/Courier-Oblique-latin1
    /Courier-Oblique findfont
    dup length dict begin
	{1 index /FID ne {def} {pop pop} ifelse} forall
	/Encoding isolatin1encoding def
    currentdict end
definefont pop
/Courier-Bold-latin1
    /Courier-Bold findfont
    dup length dict begin
	{1 index /FID ne {def} {pop pop} ifelse} forall
	/Encoding isolatin1encoding def
    currentdict end
definefont pop
/Courier-BoldOblique-latin1
    /Courier-BoldOblique findfont
    dup length dict begin
	{1 index /FID ne {def} {pop pop} ifelse} forall
	/Encoding isolatin1encoding def
    currentdict end
definefont pop
/Helvetica-latin1
    /Helvetica findfont
    dup length dict begin
	{1 index /FID ne {def} {pop pop} ifelse} forall
	/Encoding isolatin1encoding def
    currentdict end
definefont pop
/Helvetica-Oblique-latin1
    /Helvetica-Oblique findfont
    dup length dict begin
	{1 index /FID ne {def} {pop pop} ifelse} forall
	/Encoding isolatin1encoding def
    currentdict end
definefont pop
/Helvetica-Bold-latin1
    /Helvetica-Bold findfont
    dup length dict begin
	{1 index /FID ne {def} {pop pop} ifelse} forall
	/Encoding isolatin1encoding def
    currentdict end
definefont pop
/Helvetica-BoldOblique-latin1
    /Helvetica-BoldOblique findfont
    dup length dict begin
	{1 index /FID ne {def} {pop pop} ifelse} forall
	/Encoding isolatin1encoding def
    currentdict end
definefont pop
/Helvetica-Narrow-latin1
    /Helvetica-Narrow findfont
    dup length dict begin
	{1 index /FID ne {def} {pop pop} ifelse} forall
	/Encoding isolatin1encoding def
    currentdict end
definefont pop
/Helvetica-Narrow-Oblique-latin1
    /Helvetica-Narrow-Oblique findfont
    dup length dict begin
	{1 index /FID ne {def} {pop pop} ifelse} forall
	/Encoding isolatin1encoding def
    currentdict end
definefont pop
/Helvetica-Narrow-Bold-latin1
    /Helvetica-Narrow-Bold findfont
    dup length dict begin
	{1 index /FID ne {def} {pop pop} ifelse} forall
	/Encoding isolatin1encoding def
    currentdict end
definefont pop
/Helvetica-Narrow-BoldOblique-latin1
    /Helvetica-Narrow-BoldOblique findfont
    dup length dict begin
	{1 index /FID ne {def} {pop pop} ifelse} forall
	/Encoding isolatin1encoding def
    currentdict end
definefont pop
/NewCenturySchlbk-Roman-latin1
    /NewCenturySchlbk-Roman findfont
    dup length dict begin
	{1 index /FID ne {def} {pop pop} ifelse} forall
	/Encoding isolatin1encoding def
    currentdict end
definefont pop
/NewCenturySchlbk-Italic-latin1
    /NewCenturySchlbk-Italic findfont
    dup length dict begin
	{1 index /FID ne {def} {pop pop} ifelse} forall
	/Encoding isolatin1encoding def
    currentdict end
definefont pop
/NewCenturySchlbk-Bold-latin1
    /NewCenturySchlbk-Bold findfont
    dup length dict begin
	{1 index /FID ne {def} {pop pop} ifelse} forall
	/Encoding isolatin1encoding def
    currentdict end
definefont pop
/NewCenturySchlbk-BoldItalic-latin1
    /NewCenturySchlbk-BoldItalic findfont
    dup length dict begin
	{1 index /FID ne {def} {pop pop} ifelse} forall
	/Encoding isolatin1encoding def
    currentdict end
definefont pop
/Palatino-Roman-latin1
    /Palatino-Roman findfont
    dup length dict begin
	{1 index /FID ne {def} {pop pop} ifelse} forall
	/Encoding isolatin1encoding def
    currentdict end
definefont pop
/Palatino-Italic-latin1
    /Palatino-Italic findfont
    dup length dict begin
	{1 index /FID ne {def} {pop pop} ifelse} forall
	/Encoding isolatin1encoding def
    currentdict end
definefont pop
/Palatino-Bold-latin1
    /Palatino-Bold findfont
    dup length dict begin
	{1 index /FID ne {def} {pop pop} ifelse} forall
	/Encoding isolatin1encoding def
    currentdict end
definefont pop
/Palatino-BoldItalic-latin1
    /Palatino-BoldItalic findfont
    dup length dict begin
	{1 index /FID ne {def} {pop pop} ifelse} forall
	/Encoding isolatin1encoding def
    currentdict end
definefont pop
/Symbol-latin1
    /Symbol findfont
definefont pop
/ZapfChancery-MediumItalic-latin1
    /ZapfChancery-MediumItalic findfont
    dup length dict begin
	{1 index /FID ne {def} {pop pop} ifelse} forall
	/Encoding isolatin1encoding def
    currentdict end
definefont pop
/ZapfDingbats-latin1
    /ZapfDingbats findfont
    dup length dict begin
	{1 index /FID ne {def} {pop pop} ifelse} forall
	/Encoding isolatin1encoding def
    currentdict end
definefont pop
28.346000 -28.346000 scale
-6.366250 -21.775000 translate
%%EndProlog


1.000000 1.000000 1.000000 srgb
n 27.808800 0.550000 m 27.808800 2.450000 l 33.791300 2.450000 l 33.791300 0.550000 l f
0.100000 slw
[] 0 sd
[] 0 sd
0 slj
0.000000 0.000000 0.000000 srgb
n 27.808800 0.550000 m 27.808800 2.450000 l 33.791300 2.450000 l 33.791300 0.550000 l cp s
/Helvetica-latin1 ff 0.560000 scf sf
(Planetary System) dup sw 2 div 30.800050 ex sub 1.620000 m
 gs 1 -1 sc sh gr
1.000000 1.000000 1.000000 srgb
n 10.783800 5.950000 m 10.783800 7.850000 l 20.016300 7.850000 l 20.016300 5.950000 l f
0.100000 slw
[] 0 sd
[] 0 sd
0 slj
0.000000 0.000000 0.000000 srgb
n 10.783800 5.950000 m 10.783800 7.850000 l 20.016300 7.850000 l 20.016300 5.950000 l cp s
/Helvetica-latin1 ff 0.560000 scf sf
(Distance Based Classification) dup sw 2 div 15.400050 ex sub 7.020000 m
 gs 1 -1 sc sh gr
0.100000 slw
[] 0 sd
[] 0 sd
0 slj
0 slc
n 27.808800 1.500000 m 15.400050 1.500000 l 15.400050 5.400000 l s
0 slj
n 15.150050 5.400000 m 15.400050 5.900000 l 15.650050 5.400000 l ef
0.100000 slw
[] 0 sd
0 slj
n 15.150050 5.400000 m 15.400050 5.900000 l 15.650050 5.400000 l cp s
1.000000 1.000000 1.000000 srgb
n 40.951200 5.462500 m 40.951200 7.362500 l 51.248700 7.362500 l 51.248700 5.462500 l f
0.100000 slw
[] 0 sd
[] 0 sd
0 slj
0.000000 0.000000 0.000000 srgb
n 40.951200 5.462500 m 40.951200 7.362500 l 51.248700 7.362500 l 51.248700 5.462500 l cp s
/Helvetica-latin1 ff 0.560000 scf sf
(Composition Based Classification) dup sw 2 div 46.099950 ex sub 6.532500 m
 gs 1 -1 sc sh gr
0.100000 slw
[] 0 sd
[] 0 sd
0 slj
0 slc
n 33.791300 1.500000 m 46.099950 1.500000 l 46.099950 4.912500 l s
0 slj
n 45.849950 4.912500 m 46.099950 5.412500 l 46.349950 4.912500 l ef
0.100000 slw
[] 0 sd
0 slj
n 45.849950 4.912500 m 46.099950 5.412500 l 46.349950 4.912500 l cp s
1.000000 1.000000 1.000000 srgb
n 6.416250 11.862500 m 6.416250 13.762500 l 10.983750 13.762500 l 10.983750 11.862500 l f
0.100000 slw
[] 0 sd
[] 0 sd
0 slj
0.000000 0.000000 0.000000 srgb
n 6.416250 11.862500 m 6.416250 13.762500 l 10.983750 13.762500 l 10.983750 11.862500 l cp s
/Helvetica-latin1 ff 0.560000 scf sf
(Inner Planet) dup sw 2 div 8.700000 ex sub 12.932500 m
 gs 1 -1 sc sh gr
1.000000 1.000000 1.000000 srgb
n 21.631200 12.062500 m 21.631200 13.962500 l 26.268700 13.962500 l 26.268700 12.062500 l f
0.100000 slw
[] 0 sd
[] 0 sd
0 slj
0.000000 0.000000 0.000000 srgb
n 21.631200 12.062500 m 21.631200 13.962500 l 26.268700 13.962500 l 26.268700 12.062500 l cp s
/Helvetica-latin1 ff 0.560000 scf sf
(Outer Planet) dup sw 2 div 23.949950 ex sub 13.132500 m
 gs 1 -1 sc sh gr
1.000000 1.000000 1.000000 srgb
n 33.438700 11.312500 m 33.438700 13.212500 l 39.361200 13.212500 l 39.361200 11.312500 l f
0.100000 slw
[] 0 sd
[] 0 sd
0 slj
0.000000 0.000000 0.000000 srgb
n 33.438700 11.312500 m 33.438700 13.212500 l 39.361200 13.212500 l 39.361200 11.312500 l cp s
/Helvetica-latin1 ff 0.560000 scf sf
(Terrestrial Planet) dup sw 2 div 36.399950 ex sub 12.382500 m
 gs 1 -1 sc sh gr
0.100000 slw
[] 0 sd
[] 0 sd
0 slj
0 slc
n 46.099950 7.412988 m 46.099950 9.212744 l 36.448900 9.212744 l 36.448900 10.462500 l s
0 slj
n 36.198900 10.462500 m 36.448900 10.962500 l 36.698900 10.462500 l ef
0.100000 slw
[] 0 sd
0 slj
n 36.198900 10.462500 m 36.448900 10.962500 l 36.698900 10.462500 l cp s
0.100000 slw
[] 0 sd
[] 0 sd
0 slj
0 slc
n 15.400050 7.900488 m 15.400050 9.881494 l 8.700000 9.881494 l 8.700000 11.312500 l s
0 slj
n 8.450000 11.312500 m 8.700000 11.812500 l 8.950000 11.312500 l ef
0.100000 slw
[] 0 sd
0 slj
n 8.450000 11.312500 m 8.700000 11.812500 l 8.950000 11.312500 l cp s
0.100000 slw
[] 0 sd
[] 0 sd
0 slj
0 slc
n 15.400050 7.800000 m 15.400050 9.906250 l 23.949950 9.906250 l 23.949950 11.462500 l s
0 slj
n 23.699950 11.462500 m 23.949950 11.962500 l 24.199950 11.462500 l ef
0.100000 slw
[] 0 sd
0 slj
n 23.699950 11.462500 m 23.949950 11.962500 l 24.199950 11.462500 l cp s
1.000000 1.000000 1.000000 srgb
n 51.555100 11.212500 m 51.555100 13.112500 l 56.442600 13.112500 l 56.442600 11.212500 l f
0.100000 slw
[] 0 sd
[] 0 sd
0 slj
0.000000 0.000000 0.000000 srgb
n 51.555100 11.212500 m 51.555100 13.112500 l 56.442600 13.112500 l 56.442600 11.212500 l cp s
/Helvetica-latin1 ff 0.560000 scf sf
(Giants/Jovian) dup sw 2 div 53.998850 ex sub 12.282500 m
 gs 1 -1 sc sh gr
0.100000 slw
[] 0 sd
[] 0 sd
0 slj
0 slc
n 46.100000 7.462500 m 46.100000 9.212500 l 53.998900 9.212500 l 53.998900 10.662500 l s
0 slj
n 53.748900 10.662500 m 53.998900 11.162500 l 54.248900 10.662500 l ef
0.100000 slw
[] 0 sd
0 slj
n 53.748900 10.662500 m 53.998900 11.162500 l 54.248900 10.662500 l cp s
1.000000 1.000000 1.000000 srgb
n 22.255100 17.425000 m 22.255100 21.725000 l 25.742600 21.725000 l 25.742600 17.425000 l f
0.100000 slw
[] 0 sd
[] 0 sd
0 slj
0.000000 0.000000 0.000000 srgb
n 22.255100 17.425000 m 22.255100 21.725000 l 25.742600 21.725000 l 25.742600 17.425000 l cp s
/Helvetica-latin1 ff 0.560000 scf sf
(Jupiter) dup sw 2 div 23.998850 ex sub 18.495000 m
 gs 1 -1 sc sh gr
(Saturn) dup sw 2 div 23.998850 ex sub 19.295000 m
 gs 1 -1 sc sh gr
(Uranus) dup sw 2 div 23.998850 ex sub 20.095000 m
 gs 1 -1 sc sh gr
(Neptune) dup sw 2 div 23.998850 ex sub 20.895000 m
 gs 1 -1 sc sh gr
0.100000 slw
[] 0 sd
[] 0 sd
0 slc
n 23.950000 13.962500 m 23.991133 16.875055 l s
0 slj
n 23.741158 16.878585 m 23.998194 17.375005 l 24.241108 16.871525 l ef
0.100000 slw
[] 0 sd
0 slj
n 23.741158 16.878585 m 23.998194 17.375005 l 24.241108 16.871525 l cp s
1.000000 1.000000 1.000000 srgb
n 7.067600 17.075000 m 7.067600 21.375000 l 10.430100 21.375000 l 10.430100 17.075000 l f
0.100000 slw
[] 0 sd
[] 0 sd
0 slj
0.000000 0.000000 0.000000 srgb
n 7.067600 17.075000 m 7.067600 21.375000 l 10.430100 21.375000 l 10.430100 17.075000 l cp s
/Helvetica-latin1 ff 0.560000 scf sf
(Mercury) dup sw 2 div 8.748850 ex sub 18.145000 m
 gs 1 -1 sc sh gr
(Venus) dup sw 2 div 8.748850 ex sub 18.945000 m
 gs 1 -1 sc sh gr
(Earth) dup sw 2 div 8.748850 ex sub 19.745000 m
 gs 1 -1 sc sh gr
(Mars) dup sw 2 div 8.748850 ex sub 20.545000 m
 gs 1 -1 sc sh gr
0.100000 slw
[] 0 sd
[] 0 sd
0 slc
n 8.700000 13.762500 m 8.740740 16.525060 l s
0 slj
n 8.490767 16.528746 m 8.748113 17.025005 l 8.990713 16.521373 l ef
0.100000 slw
[] 0 sd
0 slj
n 8.490767 16.528746 m 8.748113 17.025005 l 8.990713 16.521373 l cp s
1.000000 1.000000 1.000000 srgb
n 34.767600 16.975000 m 34.767600 21.275000 l 38.130100 21.275000 l 38.130100 16.975000 l f
0.100000 slw
[] 0 sd
[] 0 sd
0 slj
0.000000 0.000000 0.000000 srgb
n 34.767600 16.975000 m 34.767600 21.275000 l 38.130100 21.275000 l 38.130100 16.975000 l cp s
/Helvetica-latin1 ff 0.560000 scf sf
(Mercury) dup sw 2 div 36.448850 ex sub 18.045000 m
 gs 1 -1 sc sh gr
(Venus) dup sw 2 div 36.448850 ex sub 18.845000 m
 gs 1 -1 sc sh gr
(Earth) dup sw 2 div 36.448850 ex sub 19.645000 m
 gs 1 -1 sc sh gr
(Mars) dup sw 2 div 36.448850 ex sub 20.445000 m
 gs 1 -1 sc sh gr
1.000000 1.000000 1.000000 srgb
n 52.305100 17.025000 m 52.305100 21.325000 l 55.792600 21.325000 l 55.792600 17.025000 l f
0.100000 slw
[] 0 sd
[] 0 sd
0 slj
0.000000 0.000000 0.000000 srgb
n 52.305100 17.025000 m 52.305100 21.325000 l 55.792600 21.325000 l 55.792600 17.025000 l cp s
/Helvetica-latin1 ff 0.560000 scf sf
(Jupiter) dup sw 2 div 54.048850 ex sub 18.095000 m
 gs 1 -1 sc sh gr
(Saturn) dup sw 2 div 54.048850 ex sub 18.895000 m
 gs 1 -1 sc sh gr
(Uranus) dup sw 2 div 54.048850 ex sub 19.695000 m
 gs 1 -1 sc sh gr
(Neptune) dup sw 2 div 54.048850 ex sub 20.495000 m
 gs 1 -1 sc sh gr
0.100000 slw
[] 0 sd
[] 0 sd
0 slc
n 36.400000 13.212500 m 36.441752 16.425046 l s
0 slj
n 36.191774 16.428295 m 36.448250 16.925004 l 36.691731 16.421798 l ef
0.100000 slw
[] 0 sd
0 slj
n 36.191774 16.428295 m 36.448250 16.925004 l 36.691731 16.421798 l cp s
0.100000 slw
[] 0 sd
[] 0 sd
0 slc
n 53.998900 13.112500 m 54.041872 16.475045 l s
0 slj
n 53.791892 16.478240 m 54.048261 16.975004 l 54.291851 16.471850 l ef
0.100000 slw
[] 0 sd
0 slj
n 53.791892 16.478240 m 54.048261 16.975004 l 54.291851 16.471850 l cp s
showpage
