\relax 
\providecommand\hyper@newdestlabel[2]{}
\providecommand\HyperFirstAtBeginDocument{\AtBeginDocument}
\HyperFirstAtBeginDocument{\ifx\hyper@anchor\@undefined
\global\let\oldcontentsline\contentsline
\gdef\contentsline#1#2#3#4{\oldcontentsline{#1}{#2}{#3}}
\global\let\oldnewlabel\newlabel
\gdef\newlabel#1#2{\newlabelxx{#1}#2}
\gdef\newlabelxx#1#2#3#4#5#6{\oldnewlabel{#1}{{#2}{#3}}}
\AtEndDocument{\ifx\hyper@anchor\@undefined
\let\contentsline\oldcontentsline
\let\newlabel\oldnewlabel
\fi}
\fi}
\global\let\hyper@last\relax 
\gdef\HyperFirstAtBeginDocument#1{#1}
\providecommand\HyField@AuxAddToFields[1]{}
\providecommand\HyField@AuxAddToCoFields[2]{}
\@writefile{nav}{\headcommand {\slideentry {0}{0}{1}{1/1}{}{0}}}
\@writefile{nav}{\headcommand {\beamer@framepages {1}{1}}}
\@writefile{nav}{\headcommand {\slideentry {0}{0}{2}{2/2}{}{0}}}
\@writefile{nav}{\headcommand {\beamer@framepages {2}{2}}}
\@writefile{toc}{\beamer@sectionintoc {1}{Solar System}{3}{0}{1}}
\@writefile{nav}{\headcommand {\beamer@sectionpages {1}{2}}}
\@writefile{nav}{\headcommand {\beamer@subsectionpages {1}{2}}}
\@writefile{nav}{\headcommand {\sectionentry {1}{Solar System}{3}{Solar System}{0}}}
\@writefile{nav}{\headcommand {\slideentry {1}{0}{0}{3/3}{}{0}}}
\@writefile{nav}{\headcommand {\beamer@framepages {3}{3}}}
\@writefile{toc}{\beamer@subsectionintoc {1}{1}{History of Solar System Discoveries}{4}{0}{1}}
\@writefile{nav}{\headcommand {\beamer@subsectionpages {1}{3}}}
\@writefile{nav}{\headcommand {\beamer@subsectionentry {0}{1}{1}{4}{History of Solar System Discoveries}}}
\@writefile{nav}{\headcommand {\slideentry {1}{1}{0}{4/4}{}{0}}}
\@writefile{nav}{\headcommand {\beamer@framepages {4}{4}}}
\@writefile{toc}{\beamer@subsectionintoc {1}{2}{Formation and Evolution}{5}{0}{1}}
\@writefile{nav}{\headcommand {\beamer@subsectionpages {1}{4}}}
\@writefile{nav}{\headcommand {\beamer@subsectionentry {0}{1}{2}{5}{Formation and Evolution}}}
\@writefile{nav}{\headcommand {\slideentry {1}{2}{0}{5/5}{}{0}}}
\@writefile{nav}{\headcommand {\beamer@framepages {5}{5}}}
\@writefile{nav}{\headcommand {\slideentry {1}{2}{1}{6/6}{}{0}}}
\@writefile{nav}{\headcommand {\beamer@framepages {6}{6}}}
\@writefile{toc}{\beamer@sectionintoc {2}{Planetary System}{7}{0}{2}}
\@writefile{nav}{\headcommand {\beamer@sectionpages {1}{6}}}
\@writefile{nav}{\headcommand {\beamer@subsectionpages {1}{6}}}
\@writefile{nav}{\headcommand {\sectionentry {2}{Planetary System}{7}{Planetary System}{0}}}
\@writefile{nav}{\headcommand {\slideentry {2}{0}{0}{7/7}{}{0}}}
\@writefile{nav}{\headcommand {\beamer@framepages {7}{7}}}
\@writefile{toc}{\beamer@sectionintoc {3}{Planetary Classification}{8}{0}{3}}
\@writefile{nav}{\headcommand {\beamer@sectionpages {1}{7}}}
\@writefile{nav}{\headcommand {\beamer@subsectionpages {1}{7}}}
\@writefile{nav}{\headcommand {\sectionentry {3}{Planetary Classification}{8}{Planetary Classification}{0}}}
\@writefile{nav}{\headcommand {\slideentry {3}{0}{0}{8/8}{}{0}}}
\@writefile{nav}{\headcommand {\beamer@framepages {8}{8}}}
\@writefile{toc}{\beamer@sectionintoc {4}{Planets}{9}{0}{4}}
\@writefile{nav}{\headcommand {\beamer@sectionpages {1}{8}}}
\@writefile{nav}{\headcommand {\beamer@subsectionpages {1}{8}}}
\@writefile{nav}{\headcommand {\sectionentry {4}{Planets}{9}{Planets}{0}}}
\@writefile{nav}{\headcommand {\slideentry {4}{0}{0}{9/9}{}{0}}}
\@writefile{nav}{\headcommand {\beamer@framepages {9}{9}}}
\@writefile{nav}{\headcommand {\slideentry {4}{0}{1}{10/10}{}{0}}}
\@writefile{nav}{\headcommand {\beamer@framepages {10}{10}}}
\@writefile{nav}{\headcommand {\slideentry {4}{0}{2}{11/11}{}{0}}}
\@writefile{nav}{\headcommand {\beamer@framepages {11}{11}}}
\@writefile{nav}{\headcommand {\slideentry {4}{0}{3}{12/12}{}{0}}}
\@writefile{nav}{\headcommand {\beamer@framepages {12}{12}}}
\@writefile{nav}{\headcommand {\slideentry {4}{0}{4}{13/13}{}{0}}}
\@writefile{nav}{\headcommand {\beamer@framepages {13}{13}}}
\@writefile{nav}{\headcommand {\slideentry {4}{0}{5}{14/14}{}{0}}}
\@writefile{nav}{\headcommand {\beamer@framepages {14}{14}}}
\@writefile{nav}{\headcommand {\slideentry {4}{0}{6}{15/15}{}{0}}}
\@writefile{nav}{\headcommand {\beamer@framepages {15}{15}}}
\@writefile{nav}{\headcommand {\slideentry {4}{0}{7}{16/16}{}{0}}}
\@writefile{nav}{\headcommand {\beamer@framepages {16}{16}}}
\@writefile{toc}{\beamer@sectionintoc {5}{Theorem}{17}{0}{5}}
\@writefile{nav}{\headcommand {\beamer@sectionpages {1}{16}}}
\@writefile{nav}{\headcommand {\beamer@subsectionpages {1}{16}}}
\@writefile{nav}{\headcommand {\sectionentry {5}{Theorem}{17}{Theorem}{0}}}
\@writefile{nav}{\headcommand {\slideentry {5}{0}{0}{17/17}{}{0}}}
\@writefile{nav}{\headcommand {\beamer@framepages {17}{17}}}
\@writefile{nav}{\headcommand {\slideentry {5}{0}{1}{18/18}{}{0}}}
\@writefile{nav}{\headcommand {\beamer@framepages {18}{18}}}
\@writefile{nav}{\headcommand {\slideentry {5}{0}{2}{19/19}{}{0}}}
\@writefile{nav}{\headcommand {\beamer@framepages {19}{19}}}
\@writefile{nav}{\headcommand {\slideentry {5}{0}{3}{20/20}{}{0}}}
\@writefile{nav}{\headcommand {\beamer@framepages {20}{20}}}
\@writefile{nav}{\headcommand {\beamer@partpages {1}{20}}}
\@writefile{nav}{\headcommand {\beamer@subsectionpages {1}{20}}}
\@writefile{nav}{\headcommand {\beamer@sectionpages {1}{20}}}
\@writefile{nav}{\headcommand {\beamer@documentpages {20}}}
\@writefile{nav}{\headcommand {\gdef \inserttotalframenumber {20}}}
